Account: Team ID,Account: Brand,Account: Primary DSM: Full Name,Account: SAP ID,Account: Account Name,Contact Role*,Contact: Full Name,Contact: Home Phone*,Contact: Office Phone*,Contact: Mobile Phone*,Contact: Email*,Contact: Contact Role*
CJ75,Kruger,Zachary Klaver,9251651,"T&D SEEDS, LLC",Primary Contact,Ty Bergman,-,-,(319) 269-6134,tbergman97@gmail.com,Primary Contact
CJ75,Kruger,Joshua Adams,9243294,GARY ZIDLICKY,Primary Contact,GARY ZIDLICKY,-,5637355628,(563) 380-8628,gzidlic@hotmail.com,Primary Contact
CJ75,Kruger,Jeremy Walter,9426208,JON SCHWANKE TLC,Primary Contact,JON SCHWANKE,(712) 249-0397,-,-,jdschwanke@gmail.com,Primary Contact
CJ75,Kruger,Joshua Adams,9240326,JESSE FOWLKES,Primary Contact,JESSE FOWLKES,-,(563) 920-7142,(563) 920-7142,fowlkes.jj@gmail.com,Primary Contact
CJ75,Kruger,Brian Brenny,9237163,PETE SEEDS JON E SNYDER,Primary Contact,Jon Snyder,-,7128302102,-,jsnyder@evertek.net,Primary Contact
CJ75,Kruger,Brian Brenny,9229779,HAGAN SEED LLC,Primary Contact,MIKE HAGAN,-,-,(712) 830-1277,mhagan@availa.bank,Primary Contact
CJ75,Kruger,Joshua Adams,4198064,K&J SQUIRES,Primary Contact,KEVIN SQUIRES,(319) 558-7261,(319) 849-1498,(319) 721-9761,krsquires@aol.com,Primary Contact
CJ75,Kruger,Jillian Millikin,9255848,KEVIN WISCHMEIER,Primary Contact,Kevin Wischmeier,-,-,(319) 572-3786,kevin.wischmeier@gmail.com,Primary Contact
CJ75,Kruger,Joshua Adams,9229863,JUDISCH FARMS INC,Primary Contact,Tom Judisch,-,5635785813,(319) 239-8967,judischtk@hotmail.com,Primary Contact
CJ75,Kruger,Brian Brenny,9265857,C LUDWIG FARMS,Primary Contact,Chris Ludwig,(712) 673-2655,7128309879,7128309879,cludwig7@gmail.com,Primary Contact
CJ75,Kruger,Atisha Bruce,9267240,KEVIN LLOYD,Primary Contact,KEVIN LLOYD,-,-,(641) 414-3504,ridinglow17@yahoo.com,Salesperson
CJ75,Kruger,Jillian Millikin,9233969,KWH SEEDS - KEVIN HARTWIG,Primary Contact,Kevin W Hartwig,-,(563) 890-2316,5633571154,wick@fbcom.net,Primary Contact
CJ75,Kruger,Dan Eklund,9267613,MIKE MACE,Primary Contact,MIKE MACE,(515) 465-4957,(515) 491-1888,-,mmace1888@gmail.com,Salesperson
CJ75,Kruger,Marcus J Neppl,9200801,RANDY VAN VELDHUIZEN COUNTRYSIDE AG SERVICE,Primary Contact,Randy Van Veldhuizen,-,7127222675,(712) 441-5632,randyvanveld@gmail.com,Primary Contact
CJ75,Kruger,Zachary Klaver,9243096,LELAND MEITNER,Primary Contact,Leland Meitner,-,6412205841,(641) 220-5841,lmeitner@myomnitel.com,Primary Contact
CJ75,Kruger,Marcus J Neppl,9267242,JEFF FOLKENS SEEDS,Primary Contact,Jeff C Folkens,-,(712) 472-2646,(605) 838-5157,folkensjeff@gmail.com,Primary Contact
CJ75,Kruger,Dan Eklund,9233471,ROGER & LUKE SARCHET,Primary Contact,Roger L Sarchet,-,7126600874,-,sarchetrj@gmail.com,Primary Contact
CJ75,Kruger,Atisha Bruce,9266442,SPORT WADE INC,Primary Contact,Shawn Wade,-,(641) 445-5613,(641) 340-5833,swade@grm.net,Primary Contact
CJ75,Kruger,Zachary Klaver,9242966,WARREN BRUNS,Primary Contact,Warren Bruns,-,(641) 583-0090,(641) 583-0090,wbruns@wctatel.net,Primary Contact
CJ75,Kruger,Zachary Klaver,9420908,FELDMAN SEED TROY FELDMAN,Alternate Primary,Donald Feldman,-,-,-,tfeldman40@gmail.com,Primary Contact
CJ75,Kruger,Marcus J Neppl,9130183,LE MARS AGRI-CENTER,Delivery Contact,Bruce .,-,(712) 546-4127,-,bschmidt@premieronline.net,Delivery Contact
CJ75,Kruger,Marcus J Neppl,9229790,WILLIAM KENNETH REINHARDT,Primary Contact,William Reinhardt,(712) 362-5002,(712) 380-7761,(712) 380-7761,rseedyield@gmail.com,Delivery Contact
CJ75,Kruger,Dan Eklund,9229820,TOM MADSEN FARM INC,Primary Contact,Tom Madsen,-,7128412139,(712) 358-1901,tomandmarymadsen@gmail.com,Primary Contact
CJ75,Kruger,Zachary Klaver,9229826,DOUG PETERSBURG CENTURY AG,Primary Contact,DOUG PETERSBURG,-,(641) 590-3487,-,dpetersburg@wctatel.net,Primary Contact
CJ75,Kruger,Joshua Adams,9243361,DARIN MONROE,Primary Contact,Darin Monroe,-,5638647241,5634194781,monroe4781@gmail.com,Crop Protection Bulk Contact
CJ75,Kruger,Joshua Adams,9254370,WAUKON FEED RANCH INC,Delivery Contact,Brian Herman,5635686222,5635684599,(563) 568-7899,breanne_herman@hotmail.com,Primary Contact
CJ75,Kruger,Brian Brenny,9241477,ROBERT RAY MOHR,Primary Contact,Robert Mohr,-,-,(712) 251-6874,mohrs@longlines.com,Seed Manager
CJ75,Kruger,Missy J Grothoff,9241841,TONY WACHA,Primary Contact,TONY WACHA,-,(641) 750-3183,-,tonywacha@hotmail.com,Salesperson
CJ75,Kruger,Atisha Bruce,9229834,GARY TAYLOR,Alternate Primary,Gary A Taylor,-,6413427188,(641) 340-0868,thetaylors@iowatelecom.net,Alternate Primary
CJ75,Kruger,Marcus J Neppl,9200621,WENDELL VAN BEEK,Primary Contact,Wendell Van Beek,-,-,(712) 441-3002,wendellvb@hotmail.com,Primary Contact
CJ75,Kruger,Atisha Bruce,9260326,KAUFMAN SEED LLC,Primary Contact,BRAD KAUFMAN,-,-,(515) 442-6040,bkaufmanfarms@gmail.com,Primary Contact
CJ75,Kruger,Zachary Klaver,9241498,DUANE SCHLICHTING DES FARMS INC,Primary Contact,DUANE SCHLICHTING,(641) 357-4632,-,(641) 430-0916,duanee67@gmail.com,Primary Contact
CJ75,Kruger,Zachary Klaver,9229847,TOM BARNETT,Primary Contact,Tom Barnett,(319) 239-7164,3192764834,(319) 239-7164,tbarnett@butler-bremer.com,Primary Contact
CJ75,Kruger,Jeremy Walter,9229714,RODNEY HART,Primary Contact,Rodney Hart,-,(712) 829-2441,(712) 621-2441,rjhart@myfmtc.com,Primary Contact
CJ75,Kruger,Jillian Millikin,9242675,RICK KUNTZ,Primary Contact,Rick Kuntz,-,(319) 470-3929,-,richardf.kuntz@gmail.com,Primary Contact
CJ75,Kruger,Marcus J Neppl,9267220,DENNIS LLYOD HILBRANDS,Primary Contact,DENNIS HILBRANDS,(712) 348-1757,(712) 348-1757,(712) 348-1757,denhilbrands1@gmail.com,Primary Contact
CJ75,Kruger,Missy J Grothoff,9267644,MUCKLER FARMS,Primary Contact,Greg Alan Muckler,-,6418219635,-,mucklerfarms@gmail.com,Primary Contact
CJ75,Kruger,Jeremy Walter,9241535,BRIAN SHIRLEY,Primary Contact,Brian Shirley,-,7123743176,(712) 313-1631,sidneyclone@gmail.com,Salesperson
CJ75,Kruger,Zachary Klaver,9241486,GARY KALVIG,Primary Contact,Gary L Kalvig,-,6414354481,(641) 330-1924,gckalvig@gmail.com,Primary Contact
CJ75,Kruger,Marcus J Neppl,9243397,HUYSMIT INC,Primary Contact,Ron Smit,-,-,(712) 230-0297,ronadrismit@gmail.com,Primary Contact
CJ75,Kruger,Missy J Grothoff,9241727,KEITH MCMAINS,Alternate Primary,Keith McMains,-,6419903334,(641) 990-3334,keithmcmains@gmail.com,Primary Contact
CJ75,Kruger,Marcus J Neppl,9234601,DOYLE WISSINK,Primary Contact,DOYLE WISSINK,(712) 439-2311,-,(712) 441-4110,drwiss@premieronline.net,Salesperson
CJ75,Kruger,Missy J Grothoff,9229719,MOON SEED Dan Anderson,Primary Contact,Susanne Anderson,-,-,(641) 691-2627,smander0120@gmail.com,Primary Contact
CJ75,Kruger,Atisha Bruce,9229803,STEVE CHANDLER,Primary Contact,STEVE CHANDLER,-,(515) 468-0565,-,schan50273@aol.com,Salesperson
CJ75,Kruger,Zachary Klaver,9134875,OSAGE COOPERATIVE ELEVATOR,Primary Contact,Dave D Chambers,-,641-732-3768,641-529-6721,billoce@osage.net,Primary Contact
CJ75,Kruger,Jeremy Walter,9229850,CLAY WALKER WALKER ANGUS FARM,Primary Contact,CLAY WALKER,-,(712) 370-3718,-,clayw@heartland.net,Primary Contact
CJ75,Kruger,Jeremy Walter,9243387,COREE SCHNEPEL,Primary Contact,Coree Schnepel,-,(712) 484-3944,(402) 250-2299,coreeschnepel@gmail.com,Primary Contact
CJ75,Kruger,Dan Eklund,9241424,RICHARD MCGRIFF,Primary Contact,RICHARD MCGRIFF,-,(712) 843-2089,(515) 418-8137,richmcgriff@hotmail.com,Primary Contact
CJ75,Kruger,Missy J Grothoff,9263980,DNA AG LLC,Primary Contact,DOUG BRUENE,-,-,6417502462,dbruene@gmail.com,Primary Contact
CJ75,Kruger,Marcus J Neppl,9267172,BLB AG SERVICE HARRIS,Alternate Primary,Brian Brueggeman,-,(712) 349-2333,(712) 330-3763,brian@blbagservice.com,Primary Contact
CJ75,Kruger,Joshua Adams,9258501,SOIL & CROP SERVICES,Primary Contact,Jay Solum,(507) 383-5085,5074985391,(507) 450-7123,soilandcrop@gmail.com,Primary Contact
CJ75,Kruger,Marcus J Neppl,9259082,G & L PARTNERSHIP,Primary Contact,LOREN TESLAA,-,-,(605) 366-8400,gbteslaa@alliancecom.net,Primary Contact
CJ75,Kruger,Brian Brenny,9259017,KENT WUEBKER,Primary Contact,Kent Wuebker,-,7128306730,(712) 830-6730,kpwuebker@gmail.com,Primary Contact
CJ75,Kruger,Zachary Klaver,9426115,ZACHARY KLAVER DSM,Delivery Contact,Zachary Klaver,-,-,-,zachary.klaver@bayer.com,Employee
CJ75,Kruger,Brian Brenny,4198022,ANDY RILEY,Primary Contact,Andy Riley,-,-,(515) 490-9535,adrfarms@gmail.com,Primary Contact
CJ75,Kruger,Zachary Klaver,9425832,RON EDEN,Primary Contact,Ron L Eden,-,6419265242,(641) 860-1315,roneden@wctatel.net,Primary Contact
CJ75,Kruger,Brian Brenny,9425833,MICHAEL MINNEHAN,Primary Contact,MICHAEL MINNEHAN,-,(515) 370-1290,(515) 370-1290,minnehan@wccta.net,Salesperson
CJ75,Kruger,Marcus J Neppl,9229840,ARNIE LANGSTRAAT,Primary Contact,ARNIE LANGSTRAAT,-,7127542973,7124610311,oriole@premieronline.net,-
CJ75,Kruger,Brian Brenny,9229870,GREG MANKER,Primary Contact,Greg Eugene Manker,-,7128733959,7128709000,tsmanker@gmail.com,Primary Contact
CJ75,Kruger,Zachary Klaver,9266629,TEDD MAAKESTAD,Primary Contact,Tedd Maakestad,-,(641) 732-5819,(641) 832-8232,tmaak@osage.net,Primary Contact
CJ75,Kruger,Atisha Bruce,9260964,JOSEPH R BEAVERS,Primary Contact,JOE BEAVERS,-,-,(515) 450-8571,jrbeaves@hotmail.com,Primary Contact
CJ75,Kruger,Jeremy Walter,9256846,ROBERT M SLOSS,Primary Contact,Robert M Sloss,-,-,(515) 979-5162,bobsloss@msn.com,Primary Contact
CJ75,Kruger,Jeremy Walter,9259719,3 R FARMS INC,Primary Contact,RON MCGREW,-,7128255492,(712) 370-6768,ron67@netins.net,Primary Contact
CJ75,Kruger,Missy J Grothoff,4753298,ANTOLIK INC,Primary Contact,DENNIS ANTOLIK,-,(641) 660-5843,6416605843,antolikd@hotmail.com,Primary Contact
CJ75,Kruger,Brian Brenny,9254941,CHARLES A GLASS,Primary Contact,Charlie Glass,-,-,(712) 693-0212,glassfarmservices@gmail.com,Primary Contact
CJ75,Kruger,Jeremy Walter,9241530,MARK PETERSEN,Primary Contact,MARK PETERSEN,-,-,(712) 621-0045,markpetersen1983@hotmail.com,Primary Contact
CJ75,Kruger,Marcus J Neppl,9422572,JOSHUA WISSINK,Primary Contact,JOSHUA WISSINK,-,-,7125405071,wissink49@hotmail.com,Primary Contact
CJ75,Kruger,Jeremy Walter,9251957,JAMES WALKUP,Primary Contact,James Walkup,-,-,(641) 340-1076,jameswalkup89@gmail.com,Primary Contact
CJ75,Kruger,Zachary Klaver,9256013,MAY FARMS AG KURT MAY,Primary Contact,Kurt May,-,-,(515) 368-1279,mayfarmsllc@gmail.com,Primary Contact
CJ75,Kruger,Dan Eklund,9252358,OPHEIM SEED AND CHEMICAL,Primary Contact,Jason Opheim,-,(515) 378-3241,(515) 368-0802,opheimseed@gmail.com,Primary Contact
CJ75,Kruger,Jillian Millikin,9424229,NAYLOR SEED COMPANY LLC,Primary Contact,RYAN BRINKMAN,(319) 465-3035,800-747-7333,(563) 845-8526,ryan@naylorseed.com,Primary Contact
CJ75,Kruger,Joshua Adams,4031973,LANCE A MOELLER,Primary Contact,Lance Moeller,-,(319) 404-1952,-,moeller_lance@hotmail.com,Delivery Contact
CJ75,Kruger,Jillian Millikin,9423888,VENTURE AG,Primary Contact,CHAD PETERSON,-,-,(563) 320-3400,petersenagltd@fbcom.net,Primary Contact
CJ75,Kruger,Missy J Grothoff,9262559,BLAKE W K MATHER,Primary Contact,Blake Mather,3195586988,-,3195586988,matherfarms@aol.com,Primary Contact
CJ75,Kruger,Dan Eklund,9229822,JIM LEGVOLD,Primary Contact,JIM LEGVOLD,-,(515) 571-4040,-,leg4isu@wccta.net,Salesperson
CJ75,Kruger,Jillian Millikin,9229876,ALLEN OLTMANNS,Primary Contact,ALLEN OLTMANNS,-,-,(563) 357-7339,caralolt@fbcom.net,Primary Contact
CJ75,Kruger,Jillian Millikin,9229777,TIMOTHY R HEILIG,Primary Contact,Tim R Heilig,-,(563) 219-6326,-,heiligfarms@yahoo.com,Primary Contact
CJ75,Kruger,Jeremy Walter,9229831,DOUG REDINBAUGH INDIAN CREEK FARMS,Primary Contact,Doug D Redinbaugh,-,7122494491,-,indiancreekfarms@dishmail.net,Primary Contact
CJ75,Kruger,Zachary Klaver,9229871,GARY SCHONING,Primary Contact,Gary Schoning,-,(641) 425-2529,(641) 425-2529,gls333@frontiernet.net,Primary Contact
CJ75,Kruger,Missy J Grothoff,9229821,PETE LYON,Primary Contact,PETE LYON,-,(641) 751-6433,-,petemary@reagan.com,Primary Contact
CJ75,Kruger,Jeremy Walter,9266388,RICHARD HANSEN,Primary Contact,RICHARD HANSEN,7125664008,7124832142,4026708948,hansen95@yahoo.com,Primary Contact
CJ75,Kruger,Mike Dicken,9233963,VASKE SALES LLC TOM OR DANNY,Primary Contact,Dan Vaske,-,-,(563) 590-6709,dcvaske@gmail.com,Primary Contact
CJ75,Kruger,Jeremy Walter,9267567,DREYER BROTHERS AG SALES LLC,Primary Contact,MIKE DREYER,-,(712) 242-7998,-,mikedreyer.amdfarms@gmail.com,Delivery Contact
CJ75,Kruger,Dan Eklund,9234559,BRANT LEE HAYWOOD,Primary Contact,Brant Haywood,-,-,(641) 750-3681,branthaywood@heartofiowa.net,Primary Contact
CJ75,Kruger,Marcus J Neppl,9241354,DON TREINEN SEEDS,Primary Contact,DON TREINEN,7122290128,(712) 786-2169,(712) 229-0128,djtreinen@midlands.net,Salesperson
CJ75,Kruger,Joshua Adams,9239240,RANDY G MORMANN H08642,Primary Contact,Randy Mormann,-,5639276489,5636085461,jrmormann@yousq.net,Primary Contact
CJ75,Kruger,Marcus J Neppl,9241421,KENT LUNDQUIST,Primary Contact,Kent Lundquist,-,7124482406,(712) 441-6652,kent.lundquist@gmail.com,Alternate Primary
CJ75,Kruger,Zachary Klaver,9241489,RON NAUMAN,Primary Contact,Ron Nauman,6413982220,6413982220,(641) 330-0178,kruger.team@bayer.com,Primary Contact
CJ75,Kruger,Zachary Klaver,9267215,DUANE BURNETT,Primary Contact,DUANE BURNETT,(641) 395-2947,6415125576,(641) 210-8004,amyb2@omnitelcom.com,Primary Contact
CJ75,Kruger,Joshua Adams,9267216,PATRICK C MALONEY,Primary Contact,Patrick C Maloney,-,5639272429,(563) 608-3780,pcfarms@yousq.net,Primary Contact
CJ75,Kruger,Marcus J Neppl,9267226,JOHN M MAHONEY,Primary Contact,John M Mahoney,-,7124903611,-,mahoney2@frontiernet.net,Primary Contact
CJ75,Kruger,Zachary Klaver,9251379,NICKOLAS CHRISTENSEN,Primary Contact,Nickolas Christensen,-,-,(515) 293-1994,christensenarthur10@gmail.com,Primary Contact
CJ75,Kruger,Marcus J Neppl,9241610,LANDMAN LTD,Primary Contact,PHIL LANDMAN,-,-,712-470-6046,farmer4cy@gmail.com,Primary Contact
CJ75,Kruger,Jeremy Walter,9431433,ANDREW MANHART,Primary Contact,Andrew Manhart,-,-,(402) 681-2265,andrew.manhart@bayer.com,Employee
CJ75,Kruger,Marcus J Neppl,9241442,ARVIN BOOTE J & A BOOTE FARMS INC,Primary Contact,Arvin Boote,-,7124702626,-,alboote@hickorytech.net,Primary Contact
CJ75,Kruger,Jeremy Walter,9241624,KEVIN GEE SEED KEVIN GEE,Alternate Primary,Karen Gee,(712) 386-2254,-,(712) 370-1244,kagee@myomnitel.com,Seed Manager
CJ75,Kruger,Marcus J Neppl,9241596,DALE FULK,Primary Contact,DALE FULK,-,7127295410,7124412947,dalefulk@gmail.com,Primary Contact
CJ75,Kruger,Dan Eklund,9241763,RUSTY CORDERMAN,Primary Contact,Rusty W Corderman,-,(712) 662-3815,(712) 660-0854,sheeprusty@evertk.net,Primary Contact
CJ75,Kruger,Dan Eklund,9229570,SOBOTKA SEEDS,Primary Contact,Jerry Sobotka,-,7128452590,(712) 358-1852,sobotkaseeds@gmail.com,Primary Contact
CJ75,Kruger,Marcus J Neppl,9233153,ALLEN BOUSEMA,Primary Contact,Allen J Bousema,-,(712) 441-1646,(712) 441-1646,abcfarms@mtcnet.net,Primary Contact
CJ75,Kruger,Atisha Bruce,9233154,WILLIAM ORY,Primary Contact,William A Ory,-,5158342755,(515) 577-2755,bjoryfarms@gmail.com,Primary Contact
CJ75,Kruger,Joshua Adams,2786449,VOORHIES GRAIN INC,Primary Contact,Nolan Voorhies,-,3199883880,3192391466,nolio@hotmail.com,Primary Contact
CJ75,Kruger,Atisha Bruce,9229674,WOODRUFF SALES JODY,Primary Contact,Jody Woodruff,-,5159610507,(515) 669-4063,mjwood3@aol.com,Primary Contact
CJ75,Kruger,Missy J Grothoff,9229802,EISTER AG,Alternate Primary,Larry Joe Eister,-,-,-,eisterag@gmail.com,Primary Contact
CJ75,Kruger,Zachary Klaver,9229862,ROGER LAABS,Primary Contact,Brody Laabs,-,-,(319) 415-8390,walterllc521@gmail.com,Primary Contact
CJ75,Kruger,Missy J Grothoff,9229846,LES FLANDERS,Primary Contact,Les Steven Flanders,-,6419432470,(641) 891-6189,lsflanders@iowatelecom.net,Primary Contact
CJ75,Kruger,Jeremy Walter,9229741,JEFFERY LYNN KRUSE,Primary Contact,Jeff Kruse,-,-,(712) 370-1451,whoopeejr@yahoo.com,Primary Contact
CJ75,Kruger,Zachary Klaver,9229773,ELDON JORGENSON,Primary Contact,ELDON JORGENSON,-,(515) 646-2110,(515) 320-1670,ejorge2552@aol.com,Primary Contact
CJ75,Kruger,Atisha Bruce,9241570,BRIAN V MATEER,Primary Contact,BRIAN MATEER,(641) 342-6794,-,(641) 414-1356,brianmateer1@gmail.com,Primary Contact
CJ75,Kruger,Zachary Klaver,9267256,BILLY JOE BONEWITZ,Primary Contact,BILL BONEWITZ,-,(641) 485-0692,-,bonewitz10@gmail.com,Salesperson
CJ75,Kruger,Joshua Adams,9235645,KRUGER FARMS INC DENNIS KRUGER,Primary Contact,Klay Kruger,-,(319) 989-2700,(319) 231-1903,klayton@krugerfarmsinc.com,Primary Contact
CJ75,Kruger,Jillian Millikin,9237468,COLLIN BURK,Primary Contact,Collin Burk,-,(319) 316-3408,-,collin_burk@hotmail.com,Primary Contact
CJ75,Kruger,Marcus J Neppl,9266571,GREGORY PAULSEN,Primary Contact,GREG PAULSEN,(712) 728-2598,-,7122610237,gpaulsen@evertek.net,Primary Contact
CJ75,Kruger,Atisha Bruce,9266813,STANDLEY FARMS INC,Alternate Primary,Chris Standley,-,-,(641) 344-5552,cstandley_19@yahoo.com,Delivery Contact
CJ75,Kruger,Jeremy Walter,9229854,ROBERT SCOTT SEEDS,Primary Contact,Bob A Scott,-,(712) 343-2486,(712) 249-0164,rslsfarms@hotmail.com,Primary Contact
CJ75,Kruger,Zachary Klaver,9229856,MARKAY INC MARK OLSON,Primary Contact,Mark Olson,-,(515) 379-2005,(515) 368-2552,mkolson85@gmail.com,Primary Contact
CJ75,Kruger,Zachary Klaver,9233129,ROCK FALLS GRAIN,Primary Contact,Jay Kohler,-,641-696-5995,-,rfgrain@myomnitel.com,Primary Contact
CJ75,Kruger,Marcus J Neppl,9233965,BRUCE JOHNSON,Primary Contact,S Bruce Johnson,(712) 338-4565,(712) 330-6545,-,doublejfarms2182@gmail.com,Primary Contact
CJ75,Kruger,Dan Eklund,9233974,ALAN BURGER,Primary Contact,Alan L Burger,-,5153523352,(515) 351-0123,taburger@wccta.net,Primary Contact
CJ75,Kruger,Jillian Millikin,9229742,DOUGLAS ALLEN HOAG,Primary Contact,DOUG HOAG,-,-,5632990517,rdmstr.hoag@gmail.com,Primary Contact
CJ75,Kruger,Atisha Bruce,9229830,IVYL RANSOM,Primary Contact,IVYL RANSOM,-,(515) 669-7909,-,ransom@myomnitel.com,Salesperson
CJ75,Kruger,Zachary Klaver,9137831,FARMERS CO-OP ASSOCIATION,Primary Contact,Jason Adams,-,(641) 585-2814,-,jadams@farmersca.com,Delivery Contact
CJ75,Kruger,Zachary Klaver,9233467,REID KLAPPERICH,Primary Contact,Reid Lawrence Klapperich,-,6417372548,(641) 220-0159,reidklapperich@yahoo.com,Primary Contact
CJ75,Kruger,Atisha Bruce,9242218,WAPELLO COUNTY GRAIN INC,Primary Contact,Wayne Durflinger,-,(641) 934-5432,-,wapellograin1@outlook.com,Primary Contact
CJ75,Kruger,Marcus J Neppl,9241376,HULSHOF FARMS,Primary Contact,Lyle Hulshof,-,-,(712) 441-0596,dmhulshof@yahoo.com,Primary Contact
CJ75,Kruger,Zachary Klaver,9253148,BRETT LAUBENTHAL,Primary Contact,Brett Laubenthal,-,-,(515) 341-4050,brett.laubenthal25@gmail.com,Primary Contact
CJ75,Kruger,Zachary Klaver,9229704,MARVIN HEIDECKER,Primary Contact,MARVIN HEIDECKER,(515) 538-2293,5158862564,(515) 538-2238,heidfarm@ilechsi.com,Primary Contact
CJ75,Kruger,Mike Dicken,9229778,BULLOCKS INC JERIMIAH CHRISTIANSEN,Primary Contact,Jerimiah Christianson,-,(563) 652-3819,(563) 357-1117,bullocksinc@gmail.com,Primary Contact
CJ75,Kruger,Zachary Klaver,9130234,SINCLAIR ELEVATOR INC,Primary Contact,Bud Vanderholt,-,(319) 346-9956,(319) 415-7396,buddyv@sinclairelevator.com,Seed Manager
CJ75,Kruger,Missy J Grothoff,9229801,RICHARD L SMITH,Primary Contact,RICK SMITH,-,-,(319) 750-2972,richard.smith@windstream.net,Delivery Contact
CJ75,Kruger,Marcus J Neppl,9229809,GERALD FUERSTENAU,Primary Contact,GERALD FUERSTENAU,-,7128524091,515-320-0127,jerry.fuerstenau@gmail.com,Primary Contact
CJ75,Kruger,Marcus J Neppl,9243315,FRANK HIRSCHMAN HILLCREST PORK LLC,Primary Contact,FRANK HIRSCHMAN,(712) 378-2217,7124908199,(712) 490-8198,hillcrest@evertek.net,Primary Contact
CJ75,Kruger,Marcus J Neppl,9230624,ALAN JULIUS,Primary Contact,ALAN JULIUS,-,7123302520,-,aejulius@frontier.com,Primary Contact
CJ75,Kruger,Marcus J Neppl,9232809,JEFF PETERSEN,Primary Contact,Jeff Petersen,-,7125401354,-,jkp@lamarscomm.net,Primary Contact
CJ75,Kruger,Dan Eklund,9241660,JD KAMMIN,Primary Contact,J D Dean Kammin,-,(515) 290-5057,515-290-5057,kamminjd@yahoo.com,Primary Contact
CJ75,Kruger,Zachary Klaver,9241507,LEROY MEYER,Primary Contact,LEROY MEYER,-,(515) 925-3647,(515) 320-1918,lccmeyer@netins.net,Primary Contact
CJ75,Kruger,Zachary Klaver,9267146,AARON BENSON,Primary Contact,Aaron Benson,-,6415900948,-,aaronbenson24@icloud.com,Primary Contact
CJ75,Kruger,Marcus J Neppl,9267241,JAMES KONZ SEEDS,Primary Contact,JIM KONZ,(712) 752-8484,-,(712) 230-1551,konzseed@gmail.com,Primary Contact
CJ75,Kruger,Joshua Adams,9233239,ROGER R BURKE,Primary Contact,Roger Burke,-,5636372212,3192698954,rburke@hawkeyetel.com,Primary Contact
CJ75,Kruger,Brian Brenny,9256080,VAIL AG NICK WEIER,Primary Contact,Nick Weier,-,(712) 269-8890,(712) 269-8890,nickw_07@hotmail.com,Primary Contact
CJ75,Kruger,Missy J Grothoff,9263257,ANDREW S LYDOLPH,Primary Contact,ERICA LYDOLPH,-,-,(641) 799-8638,aelydolph@gmail.com,Primary Contact
CJ75,Kruger,Zachary Klaver,9241468,CHRIS WERGELAND,Alternate Primary,CHRIS1 WERGELAND,-,-,5158901697,werge22@gmail.com,Alternate Primary
CJ75,Kruger,Marcus J Neppl,9250965,PRODUCERS COOP CO,Primary Contact,JIM FRITZ,(712) 757-4527,-,(712) 260-9494,gazajean@tcaexpress.net,Primary Contact
CJ75,Kruger,Mike Dicken,9250966,AXLINE FAMILY SEEDS,Primary Contact,DARIN AXLINE,-,5633572745,-,djaxline@windstream.net,Primary Contact
CJ75,Kruger,Dan Eklund,4705392,GARRETT E ARNOLD,Delivery Contact,Garrett Arnold,-,5158359985,-,garrett_arnold3@aol.com,Primary Contact
CJ75,Kruger,Zachary Klaver,9264317,AG RESOURCES UNLIMITED LLC,Primary Contact,Justin Behn,-,-,641-425-0025,agrullc@gmail.com,Primary Contact
CJ75,Kruger,Missy J Grothoff,4557144,WEIDNER AG LLC,Delivery Contact,Dru Weidner,-,-,(319) 430-4878,dru_weidner@hotmail.com,Primary Contact
CJ75,Kruger,Missy J Grothoff,9263423,VALLEY CREEK AG SERVICES,Primary Contact,Doug Black,-,-,(319) 480-7751,valleycreekagservices@gmail.com,Primary Contact
CJ75,Kruger,Missy J Grothoff,9263431,PRECISION CROP CONNECTIONS,Delivery Contact,Micah Mullenix,-,515-954-5223,(515) 954-5223,micahm22@yahoo.com.invalid,Alternate Primary
CJ75,Kruger,Zachary Klaver,9422512,NATHAN G HEIDECKER,Primary Contact,Nathan Heidecker,-,-,5155380642,nateheidecker@hotmail.com,Primary Contact
CJ75,Kruger,Zachary Klaver,9267487,RIECKENBERG SEEDS,Primary Contact,John Rieckenberg,-,-,(319) 231-9509,jsrieck@live.com,Primary Contact
CJ75,Kruger,Jeremy Walter,4588478,KEATON KING,Primary Contact,Keaton King,-,712-310-4079,-,keatonjking17@gmail.com,Primary Contact
CJ75,Kruger,Jeremy Walter,9422758,MEIER SEED,Primary Contact,Daniel Meier,-,-,(712) 370-3979,meierseed@gmail.com,Primary Contact
CJ75,Kruger,Missy J Grothoff,9424200,VAN ZEE SEED LLC,Primary Contact,MIKE VAN ZEE,-,-,(641) 780-9812,mvzman@gmail.com,Primary Contact
CJ75,Kruger,Brian Brenny,9241374,LEE CAMPBELL,Delivery Contact,Lee Campbell,-,(712) 540-4725,-,leecamp1971@gmail.com,Delivery Contact
CJ75,Kruger,Joshua Adams,9263531,FETTE SEEDS,Primary Contact,Richard Fette,-,-,(563) 880-9859,fette@windstream.net,Primary Contact
CJ75,Kruger,Mike Dicken,9248051,VALLEY ROAD SEED MARTY BURLAGE,Primary Contact,MARTIN BURLAGE,(319) 465-5230,(319) 465-5230,(319) 480-5231,martyburlage@gmail.com,Primary Contact
CJ75,Kruger,Brian Brenny,9251237,NISHNA VALLEY CROP SERVICES,Delivery Contact,JEFF SCHMITZ,(712) 592-3302,-,(712) 579-2465,nvcservices@fmctc.com,Primary Contact
CJ75,Kruger,Missy J Grothoff,9251238,GRIFFIEON AG SERVICES,Primary Contact,Nick Griffieon,-,(515) 205-7878,-,ngrif707@gmail.com,Delivery Contact
CJ75,Kruger,Zachary Klaver,9248843,ALLEN SEED AND GRAIN JED W ALLEN,Primary Contact,Jed Allen,(641) 892-4058,-,(319) 830-9308,jedsjalopyjoint@yahoo.com,Primary Contact
CJ75,Kruger,Joshua Adams,9264114,DAVID L KRAUS,Delivery Contact,DAVID KRAUS,-,5632521416,5638806831,dkrausfarms@gmail.com,Primary Contact
CJ75,Kruger,Dan Eklund,9251993,TANNER DAVIS,Primary Contact,TANNER DAVIS,-,-,(641) 751-3889,tdseeds1@gmail.com,Primary Contact
CJ75,Kruger,Jeremy Walter,9267554,GARY WALTER,Primary Contact,GARY WALTER,-,-,(712) 370-2957,gmwalter68@gmail.com,Primary Contact
CJ75,Kruger,Marcus J Neppl,9258732,DEERELANE FARMS INC,Primary Contact,Troy Thiessen,(712) 470-0068,(712) 470-0068,(712) 470-0068,deerelanefarms@yahoo.com,Primary Contact
CJ75,Kruger,Zachary Klaver,9258759,BARNETT SEED LLC,Primary Contact,Phil L Barnett,-,-,319-239-7165,phil.barnettseed@gmail.com,Alternate Primary
CJ75,Kruger,Missy J Grothoff,9248870,JACOB DEBRUIN,Primary Contact,Jake DEBRUIN,-,(641) 660-3955,-,jkdebruin_2011@hotmail.com,Salesperson
CJ75,Kruger,Brian Brenny,4694022,THE SEED SHED LLC,Primary Contact,DAVID DORALE,-,(712) 870-2092,-,daviddorale@yahoo.com,Primary Contact
CJ75,Kruger,Jillian Millikin,9241782,ANDY FRIEDRICHSEN,Primary Contact,ANDY FRIEDRICHSEN,-,(563) 682-7606,(563) 212-8300,anrfrdrc@netins.net,Primary Contact
CJ75,Kruger,Joshua Adams,9263697,MICHAEL A BRANNAMAN,Primary Contact,MICHAEL BRANNAMAN,-,-,(319) 721-5358,mikebfarms@gmail.com,Primary Contact
CJ75,Kruger,Jeremy Walter,9214690,MATTHEW J EARLYWINE,Primary Contact,Matthew Earlywine,-,-,(712) 644-5205,matte@wiaw.net,Primary Contact
CJ75,Kruger,Marcus J Neppl,4715538,HIGH POINT AG,Delivery Contact,Joel Hellinga,-,7128320130,-,joel@highpointaginc.com,Primary Contact
CJ75,Kruger,Jeremy Walter,9406450,SUNDERMAN FARMS AND FEEDLOT,Primary Contact,JAY SUNDERMAN,-,7125853680,7123701541,sunfnf@myfmtc.com,Primary Contact